rv32i/tm.vcd
$date
	Thu Sep 21 14:37:48 2023
$end
$version
	Icarus Verilog
$end
$timescale
	1s
$end
$scope module topmodule_tb $end
$var wire 32 ! result [31:0] $end
$var reg 1 " clk $end
$var reg 1 # instruct_en $end
$var reg 1 $ rst $end
$scope module u_topmodule $end
$var wire 1 " clk $end
$var wire 1 # instruct_en $end
$var wire 1 $ rst $end
$var wire 32 % wrapper_mem_o_for_data_mem_i [31:0] $end
$var wire 32 & wrapper_mem_o [31:0] $end
$var wire 4 ' store_op [3:0] $end
$var wire 5 ( rs2_addr [4:0] $end
$var wire 5 ) rs1_addr [4:0] $end
$var wire 32 * result [31:0] $end
$var wire 1 + reg_write $end
$var wire 2 , rd_sel [1:0] $end
$var wire 5 - rd_addr [4:0] $end
$var wire 32 . pc [31:0] $end
$var wire 1 / op_b_sel $end
$var wire 32 0 op_b [31:0] $end
$var wire 1 1 op_a_sel $end
$var wire 32 2 op_a [31:0] $end
$var wire 1 3 mem_write $end
$var wire 1 4 mem_read $end
$var wire 1 5 jalr $end
$var wire 1 6 jal $end
$var wire 32 7 instruction [31:0] $end
$var wire 32 8 imm [31:0] $end
$var wire 1 9 branch_taken $end
$var wire 1 : branch $end
$var wire 1 ; auipc $end
$var wire 32 < alu_op_b [31:0] $end
$var wire 32 = alu_op_a [31:0] $end
$var wire 5 > alu_op [4:0] $end
$var reg 32 ? data_in_rf [31:0] $end
$scope module U_rf0 $end
$var wire 1 " clk $end
$var wire 32 @ data_in [31:0] $end
$var wire 1 $ rst $end
$var wire 5 A rs2_addr [4:0] $end
$var wire 5 B rs1_addr [4:0] $end
$var wire 5 C rd_addr [4:0] $end
$var wire 32 D op_b [31:0] $end
$var wire 32 E op_a [31:0] $end
$var wire 1 + en $end
$var integer 32 F i [31:0] $end
$upscope $end
$scope module u_alu $end
$var wire 32 G op_a [31:0] $end
$var wire 32 H op_b [31:0] $end
$var wire 5 I alu_op [4:0] $end
$var reg 32 J result [31:0] $end
$upscope $end
$scope module u_cu $end
$var wire 5 K rs2_addr [4:0] $end
$var wire 5 L rs1_addr [4:0] $end
$var wire 5 M rd_addr [4:0] $end
$var wire 32 N instruction [31:0] $end
$var reg 5 O alu_op [4:0] $end
$var reg 1 ; auipc $end
$var reg 1 9 branch_taken $end
$var reg 32 P imm [31:0] $end
$var reg 1 6 jal $end
$var reg 1 5 jalr $end
$var reg 1 4 mem_read $end
$var reg 1 3 mem_write $end
$var reg 1 1 op_a_sel $end
$var reg 1 / op_b_sel $end
$var reg 2 Q rd_sel [1:0] $end
$var reg 1 + reg_write $end
$upscope $end
$scope module u_ir0 $end
$var wire 7 R addr_instr_mem [6:0] $end
$var wire 1 " clk $end
$var wire 1 # instruct_en $end
$var reg 32 S instruction [31:0] $end
$upscope $end
$scope module u_jc $end
$var wire 5 T alu_op [4:0] $end
$var wire 32 U instruction [31:0] $end
$var wire 32 V op_a [31:0] $end
$var wire 32 W op_b [31:0] $end
$var reg 1 : branch $end
$upscope $end
$scope module u_pc $end
$var wire 1 ; auipc $end
$var wire 1 : branch $end
$var wire 1 9 branch_taken $end
$var wire 1 " clk $end
$var wire 32 X imm [31:0] $end
$var wire 1 6 jal $end
$var wire 1 5 jalr $end
$var wire 32 Y result [31:0] $end
$var wire 1 $ rst $end
$var reg 32 Z pc [31:0] $end
$upscope $end
$scope module u_wm0 $end
$var wire 1 " clk $end
$var wire 32 [ instruction [31:0] $end
$var wire 14 \ mem_addr [13:0] $end
$var wire 1 4 mem_read $end
$var wire 1 3 mem_write $end
$var wire 32 ] wrapper_mem_i [31:0] $end
$var wire 32 ^ data_mem_o [31:0] $end
$var reg 4 _ store_op [3:0] $end
$var reg 32 ` wrapper_mem_o [31:0] $end
$var reg 32 a wrapper_mem_o_for_data_mem_i [31:0] $end
$scope module u_dm $end
$var wire 1 " clk $end
$var wire 32 b data_mem_i [31:0] $end
$var wire 12 c mem_addr [11:0] $end
$var wire 1 4 mem_read $end
$var wire 1 3 mem_write $end
$var wire 4 d write_mask [3:0] $end
$var reg 32 e data_mem_o [31:0] $end
$upscope $end
$upscope $end
$upscope $end
$upscope $end
$enddefinitions $end
#0
$dumpvars
bx e
bx d
bx c
bx b
bx a
bx `
bx _
bx ^
bx ]
bx \
bx [
bx Z
bx Y
bx X
bx W
bx V
bx U
bx T
bx S
bx R
bx Q
bx P
bx O
bx N
bx M
bx L
bx K
bx J
bx I
bx H
bx G
bx F
bx E
bx D
bx C
bx B
bx A
bx @
bx ?
bx >
bx =
bx <
x;
x:
x9
bx 8
bx 7
x6
x5
x4
x3
bx 2
x1
bx 0
x/
bx .
bx -
bx ,
x+
bx *
bx )
bx (
bx '
bx &
bx %
0$
0#
0"
bx !
$end
#5
b1111111 R
b11111111111111111111111111111100 .
b11111111111111111111111111111100 Z
b100000 F
1"
#10
0"
#15
b100000 F
1"
#20
0"
#25
b0 %
b0 a
b0 b
b1 c
b100 \
b100 ?
b100 @
b100 !
b100 *
b100 J
b100 Y
b0 =
b0 G
b0 V
b0 0
b0 D
b0 ]
b0 2
b0 E
b100 <
b100 H
b100 W
b1 -
b1 C
b1 M
b100 (
b100 A
b100 K
b1 )
b1 B
b1 L
1+
b1010 >
b1010 I
b1010 O
b1010 T
b0 ,
b0 Q
01
1/
b100 8
b100 P
b100 X
06
19
0:
b1 '
b1 _
b1 d
b10000001000000010010011 7
b10000001000000010010011 N
b10000001000000010010011 S
b10000001000000010010011 U
b10000001000000010010011 [
b0 R
b0 .
b0 Z
1"
1#
1$
#30
0"
#35
b100 %
b100 a
b100 b
b1 c
b100 0
b100 D
b100 ]
b100 <
b100 H
b100 W
b100 \
b100 ?
b100 @
b10 -
b10 C
b10 M
b1 (
b1 A
b1 K
b10 )
b10 B
b10 L
b0 >
b0 I
b0 O
b0 T
0/
b1 '
b1 _
b1 d
b100 !
b100 *
b100 J
b100 Y
0:
b100010000000100110011 7
b100010000000100110011 N
b100010000000100110011 S
b100010000000100110011 U
b100010000000100110011 [
b0 =
b0 G
b0 V
b1 R
b0 2
b0 E
b100 .
b100 Z
1"
#40
0"
#45
b11 c
1:
b1100 \
b1100 ?
b1100 @
b1100 !
b1100 *
b1100 J
b1100 Y
b100 -
b100 C
b100 M
11
1/
b1010 >
b1010 I
b1010 O
b1010 T
b11 '
b11 _
b11 d
b1000 =
b1000 G
b1000 V
b100010001001001100011 7
b100010001001001100011 N
b100010001001001100011 S
b100010001001001100011 U
b100010001001001100011 [
b100 2
b100 E
b10 R
b1000 .
b1000 Z
1"
#50
0"
#55
b0 %
b0 a
b0 b
b0 0
b0 D
b0 ]
b1000 <
b1000 H
b1000 W
b11 c
b11 -
b11 C
b11 M
b1000 (
b1000 A
b1000 K
01
b1000 8
b1000 P
b1000 X
b1 '
b1 _
b1 d
b1100 \
b1100 ?
b1100 @
b100000010000000110010011 7
b100000010000000110010011 N
b100000010000000110010011 S
b100000010000000110010011 U
b100000010000000110010011 [
b1100 !
b1100 *
b1100 J
b1100 Y
0:
b11 R
b100 =
b100 G
b100 V
b1100 .
b1100 Z
1"
#60
0"
#65
b110110 c
b11011000 \
b11011000 !
b11011000 *
b11011000 J
b11011000 Y
b0 2
b0 E
b10000 =
b10000 G
b10000 V
b11001000 <
b11001000 H
b11001000 W
b10100 ?
b10100 @
b10100 -
b10100 C
b10100 M
b0 )
b0 B
b0 L
11
b11 ,
b11 Q
16
b11001000 8
b11001000 P
b11001000 X
b1 '
b1 _
b1 d
b1100100000000000101001101111 7
b1100100000000000101001101111 N
b1100100000000000101001101111 S
b1100100000000000101001101111 U
b1100100000000000101001101111 [
b100 R
b10000 .
b10000 Z
1"
#70
0"
#75
bx 0
bx D
bx ]
bx 2
bx E
b1101000 c
bx -
bx C
bx M
bx (
bx A
bx K
bx )
bx B
bx L
06
b0 '
b0 _
b0 d
b110100000 \
bx 7
bx N
bx S
bx U
bx [
b110100000 !
b110100000 *
b110100000 J
b110100000 Y
b110110 R
b11011000 =
b11011000 G
b11011000 V
b11011100 ?
b11011100 @
b11011000 .
b11011000 Z
1"
#80
0"
#85
b1101001 c
b110100100 \
b110100100 !
b110100100 *
b110100100 J
b110100100 Y
b110111 R
b11011100 =
b11011100 G
b11011100 V
b11100000 ?
b11100000 @
b11011100 .
b11011100 Z
1"
#90
0"
#95
b1101010 c
b110101000 \
b110101000 !
b110101000 *
b110101000 J
b110101000 Y
b111000 R
b11100000 =
b11100000 G
b11100000 V
b11100100 ?
b11100100 @
b11100000 .
b11100000 Z
1"
#100
0"
#105
b1101011 c
b110101100 \
b110101100 !
b110101100 *
b110101100 J
b110101100 Y
b111001 R
b11100100 =
b11100100 G
b11100100 V
b11101000 ?
b11101000 @
b11100100 .
b11100100 Z
1"
#110
0"
#115
b1101100 c
b110110000 \
b110110000 !
b110110000 *
b110110000 J
b110110000 Y
b111010 R
b11101000 =
b11101000 G
b11101000 V
b11101100 ?
b11101100 @
b11101000 .
b11101000 Z
1"
#120
0"
#125
b1101101 c
b110110100 \
b110110100 !
b110110100 *
b110110100 J
b110110100 Y
b111011 R
b11101100 =
b11101100 G
b11101100 V
b11110000 ?
b11110000 @
b11101100 .
b11101100 Z
1"
#130
0"
#135
b1101110 c
b110111000 \
b110111000 !
b110111000 *
b110111000 J
b110111000 Y
b111100 R
b11110000 =
b11110000 G
b11110000 V
b11110100 ?
b11110100 @
b11110000 .
b11110000 Z
1"
#140
0"
#145
b1101111 c
b110111100 \
b110111100 !
b110111100 *
b110111100 J
b110111100 Y
b111101 R
b11110100 =
b11110100 G
b11110100 V
b11111000 ?
b11111000 @
b11110100 .
b11110100 Z
1"
#150
0"
#155
b1110000 c
b111000000 \
b111000000 !
b111000000 *
b111000000 J
b111000000 Y
b111110 R
b11111000 =
b11111000 G
b11111000 V
b11111100 ?
b11111100 @
b11111000 .
b11111000 Z
1"
#160
0"
#165
b1110001 c
b111000100 \
b111000100 !
b111000100 *
b111000100 J
b111000100 Y
b111111 R
b11111100 =
b11111100 G
b11111100 V
b100000000 ?
b100000000 @
b11111100 .
b11111100 Z
1"
#170
0"
#175
b1110010 c
b111001000 \
b111001000 !
b111001000 *
b111001000 J
b111001000 Y
b1000000 R
b100000000 =
b100000000 G
b100000000 V
b100000100 ?
b100000100 @
b100000000 .
b100000000 Z
1"
#180
0"
#185
b1110011 c
b111001100 \
b111001100 !
b111001100 *
b111001100 J
b111001100 Y
b1000001 R
b100000100 =
b100000100 G
b100000100 V
b100001000 ?
b100001000 @
b100000100 .
b100000100 Z
1"
#190
0"
#195
b1110100 c
b111010000 \
b111010000 !
b111010000 *
b111010000 J
b111010000 Y
b1000010 R
b100001000 =
b100001000 G
b100001000 V
b100001100 ?
b100001100 @
b100001000 .
b100001000 Z
1"
#200
0"
#205
b1110101 c
b111010100 \
b111010100 !
b111010100 *
b111010100 J
b111010100 Y
b1000011 R
b100001100 =
b100001100 G
b100001100 V
b100010000 ?
b100010000 @
b100001100 .
b100001100 Z
1"
#210
0"
#215
b1110110 c
b111011000 \
b111011000 !
b111011000 *
b111011000 J
b111011000 Y
b1000100 R
b100010000 =
b100010000 G
b100010000 V
b100010100 ?
b100010100 @
b100010000 .
b100010000 Z
1"
#220
0"
#225
b1110111 c
b111011100 \
b111011100 !
b111011100 *
b111011100 J
b111011100 Y
b1000101 R
b100010100 =
b100010100 G
b100010100 V
b100011000 ?
b100011000 @
b100010100 .
b100010100 Z
1"
#230
0"
#235
b1111000 c
b111100000 \
b111100000 !
b111100000 *
b111100000 J
b111100000 Y
b1000110 R
b100011000 =
b100011000 G
b100011000 V
b100011100 ?
b100011100 @
b100011000 .
b100011000 Z
1"
#240
0"
#245
b1111001 c
b111100100 \
b111100100 !
b111100100 *
b111100100 J
b111100100 Y
b1000111 R
b100011100 =
b100011100 G
b100011100 V
b100100000 ?
b100100000 @
b100011100 .
b100011100 Z
1"
#250
0"
#255
b1111010 c
b111101000 \
b111101000 !
b111101000 *
b111101000 J
b111101000 Y
b1001000 R
b100100000 =
b100100000 G
b100100000 V
b100100100 ?
b100100100 @
b100100000 .
b100100000 Z
1"
#260
0"
#265
b1111011 c
b111101100 \
b111101100 !
b111101100 *
b111101100 J
b111101100 Y
b1001001 R
b100100100 =
b100100100 G
b100100100 V
b100101000 ?
b100101000 @
b100100100 .
b100100100 Z
1"
#270
0"
#275
b1111100 c
b111110000 \
b111110000 !
b111110000 *
b111110000 J
b111110000 Y
b1001010 R
b100101000 =
b100101000 G
b100101000 V
b100101100 ?
b100101100 @
b100101000 .
b100101000 Z
1"
#280
0"
#285
b1111101 c
b111110100 \
b111110100 !
b111110100 *
b111110100 J
b111110100 Y
b1001011 R
b100101100 =
b100101100 G
b100101100 V
b100110000 ?
b100110000 @
b100101100 .
b100101100 Z
1"
#290
0"
#295
b1111110 c
b111111000 \
b111111000 !
b111111000 *
b111111000 J
b111111000 Y
b1001100 R
b100110000 =
b100110000 G
b100110000 V
b100110100 ?
b100110100 @
b100110000 .
b100110000 Z
1"
#300
0"
#305
b1111111 c
b111111100 \
b111111100 !
b111111100 *
b111111100 J
b111111100 Y
b1001101 R
b100110100 =
b100110100 G
b100110100 V
b100111000 ?
b100111000 @
b100110100 .
b100110100 Z
1"
#310
0"
#315
b10000000 c
b1000000000 \
b1000000000 !
b1000000000 *
b1000000000 J
b1000000000 Y
b1001110 R
b100111000 =
b100111000 G
b100111000 V
b100111100 ?
b100111100 @
b100111000 .
b100111000 Z
1"
#320
0"
#325
b10000001 c
b1000000100 \
b1000000100 !
b1000000100 *
b1000000100 J
b1000000100 Y
b1001111 R
b100111100 =
b100111100 G
b100111100 V
b101000000 ?
b101000000 @
b100111100 .
b100111100 Z
1"
#330
0"
#335
b10000010 c
b1000001000 \
b1000001000 !
b1000001000 *
b1000001000 J
b1000001000 Y
b1010000 R
b101000000 =
b101000000 G
b101000000 V
b101000100 ?
b101000100 @
b101000000 .
b101000000 Z
1"
#340
0"
#345
b10000011 c
b1000001100 \
b1000001100 !
b1000001100 *
b1000001100 J
b1000001100 Y
b1010001 R
b101000100 =
b101000100 G
b101000100 V
b101001000 ?
b101001000 @
b101000100 .
b101000100 Z
1"
