rv32i/tm.vcd
$date
	Sat Sep 23 01:09:22 2023
$end
$version
	Icarus Verilog
$end
$timescale
	1s
$end
$scope module topmodule_tb $end
$var wire 32 ! result [31:0] $end
$var reg 1 " clk $end
$var reg 1 # instruct_en $end
$var reg 1 $ rst $end
$scope module u_topmodule $end
$var wire 1 " clk $end
$var wire 1 # instruct_en $end
$var wire 1 $ rst $end
$var wire 32 % wrapper_mem_o_for_data_mem_i [31:0] $end
$var wire 32 & wrapper_mem_o [31:0] $end
$var wire 4 ' store_op [3:0] $end
$var wire 5 ( rs2_addr [4:0] $end
$var wire 5 ) rs1_addr [4:0] $end
$var wire 32 * result [31:0] $end
$var wire 1 + reg_write $end
$var wire 2 , rd_sel [1:0] $end
$var wire 5 - rd_addr [4:0] $end
$var wire 32 . pc [31:0] $end
$var wire 1 / op_b_sel $end
$var wire 32 0 op_b [31:0] $end
$var wire 1 1 op_a_sel $end
$var wire 32 2 op_a [31:0] $end
$var wire 1 3 mem_write $end
$var wire 1 4 mem_read $end
$var wire 1 5 jalr $end
$var wire 1 6 jal $end
$var wire 32 7 instruction [31:0] $end
$var wire 32 8 imm [31:0] $end
$var wire 1 9 branch_taken $end
$var wire 1 : branch $end
$var wire 32 ; alu_op_b [31:0] $end
$var wire 32 < alu_op_a [31:0] $end
$var wire 5 = alu_op [4:0] $end
$var reg 32 > data_in_rf [31:0] $end
$scope module U_rf0 $end
$var wire 1 " clk $end
$var wire 32 ? data_in [31:0] $end
$var wire 1 $ rst $end
$var wire 5 @ rs2_addr [4:0] $end
$var wire 5 A rs1_addr [4:0] $end
$var wire 5 B rd_addr [4:0] $end
$var wire 32 C op_b [31:0] $end
$var wire 32 D op_a [31:0] $end
$var wire 1 + en $end
$var integer 32 E i [31:0] $end
$upscope $end
$scope module u_alu $end
$var wire 32 F op_a [31:0] $end
$var wire 32 G op_b [31:0] $end
$var wire 5 H alu_op [4:0] $end
$var reg 32 I result [31:0] $end
$upscope $end
$scope module u_cu $end
$var wire 5 J rs2_addr [4:0] $end
$var wire 5 K rs1_addr [4:0] $end
$var wire 5 L rd_addr [4:0] $end
$var wire 32 M instruction [31:0] $end
$var reg 5 N alu_op [4:0] $end
$var reg 1 9 branch_taken $end
$var reg 32 O imm [31:0] $end
$var reg 1 6 jal $end
$var reg 1 5 jalr $end
$var reg 1 4 mem_read $end
$var reg 1 3 mem_write $end
$var reg 1 1 op_a_sel $end
$var reg 1 / op_b_sel $end
$var reg 2 P rd_sel [1:0] $end
$var reg 1 + reg_write $end
$upscope $end
$scope module u_ir0 $end
$var wire 7 Q addr_instr_mem [6:0] $end
$var wire 1 " clk $end
$var wire 1 # instruct_en $end
$var reg 32 R instruction [31:0] $end
$upscope $end
$scope module u_jc $end
$var wire 32 S instruction [31:0] $end
$var wire 32 T op_a [31:0] $end
$var wire 32 U op_b [31:0] $end
$var reg 1 : branch $end
$upscope $end
$scope module u_pc $end
$var wire 1 : branch $end
$var wire 1 9 branch_taken $end
$var wire 1 " clk $end
$var wire 32 V imm [31:0] $end
$var wire 1 6 jal $end
$var wire 1 5 jalr $end
$var wire 32 W result [31:0] $end
$var wire 1 $ rst $end
$var reg 32 X pc [31:0] $end
$upscope $end
$scope module u_wm0 $end
$var wire 1 " clk $end
$var wire 32 Y instruction [31:0] $end
$var wire 14 Z mem_addr [13:0] $end
$var wire 1 4 mem_read $end
$var wire 1 3 mem_write $end
$var wire 32 [ wrapper_mem_i [31:0] $end
$var wire 32 \ data_mem_o [31:0] $end
$var reg 4 ] store_op [3:0] $end
$var reg 32 ^ wrapper_mem_o [31:0] $end
$var reg 32 _ wrapper_mem_o_for_data_mem_i [31:0] $end
$scope module u_dm $end
$var wire 1 " clk $end
$var wire 32 ` data_mem_i [31:0] $end
$var wire 12 a mem_addr [11:0] $end
$var wire 1 4 mem_read $end
$var wire 1 3 mem_write $end
$var wire 4 b write_mask [3:0] $end
$var reg 32 c data_mem_o [31:0] $end
$upscope $end
$upscope $end
$upscope $end
$upscope $end
$enddefinitions $end
#0
$dumpvars
bx c
bx b
bx a
bx `
bx _
bx ^
bx ]
bx \
bx [
bx Z
bx Y
bx X
bx W
bx V
bx U
bx T
bx S
bx R
bx Q
bx P
bx O
bx N
bx M
bx L
bx K
bx J
bx I
bx H
bx G
bx F
bx E
bx D
bx C
bx B
bx A
bx @
bx ?
bx >
bx =
bx <
bx ;
x:
x9
bx 8
bx 7
x6
x5
x4
x3
bx 2
x1
bx 0
x/
bx .
bx -
bx ,
x+
bx *
bx )
bx (
bx '
bx &
bx %
0$
0#
0"
bx !
$end
#5
b1111111 Q
b11111111111111111111111111111100 .
b11111111111111111111111111111100 X
b100000 E
1"
#10
0"
#15
b100000 E
1"
#20
0"
#25
b0 %
b0 _
b0 `
b110 a
b11000 Z
b11000 !
b11000 *
b11000 I
b11000 W
b0 0
b0 C
b0 U
b0 [
b0 2
b0 D
b0 T
b0 <
b0 F
b11000 ;
b11000 G
b100 >
b100 ?
b1100 -
b1100 B
b1100 L
b11000 (
b11000 @
b11000 J
b0 )
b0 A
b0 K
1/
11
b1010 =
b1010 H
b1010 N
b11 ,
b11 P
1+
b11000 8
b11000 O
b11000 V
16
09
1:
b1 '
b1 ]
b1 b
b1100000000000011001101111 7
b1100000000000011001101111 M
b1100000000000011001101111 R
b1100000000000011001101111 S
b1100000000000011001101111 Y
b0 Q
b0 .
b0 X
1"
1#
1$
#30
0"
#35
b10000000000000000000000000000 ;
b10000000000000000000000000000 G
b110 a
b101 -
b101 B
b101 L
b0 (
b0 @
b0 J
b0 ,
b0 P
b10000000000000000000000000000 8
b10000000000000000000000000000 O
b10000000000000000000000000000 V
06
1:
b1 '
b1 ]
b1 b
b11000 Z
b10000000000000000001010010111 7
b10000000000000000001010010111 M
b10000000000000000001010010111 R
b10000000000000000001010010111 S
b10000000000000000001010010111 Y
b10000000000000000000000011000 !
b10000000000000000000000011000 *
b10000000000000000000000011000 I
b10000000000000000000000011000 W
b110 Q
b11000 <
b11000 F
b10000000000000000000000011000 >
b10000000000000000000000011000 ?
b11000 .
b11000 X
1"
#40
0"
#45
b100 2
b100 D
b100 T
b0 ;
b0 G
b1 a
b0 -
b0 B
b0 L
b1100 )
b1100 A
b1100 K
01
15
b0 8
b0 O
b0 V
0:
b1 '
b1 ]
b1 b
b100 Z
b100 >
b100 ?
b1100000000001100111 7
b1100000000001100111 M
b1100000000001100111 R
b1100000000001100111 S
b1100000000001100111 Y
b100 !
b100 *
b100 I
b100 W
b111 Q
b100 <
b100 F
b11100 .
b11100 X
1"
#50
0"
#55
b0 a
b1 Z
b1 >
b1 ?
b0 <
b0 F
1:
b1 !
b1 *
b1 I
b1 W
b0 2
b0 D
b0 T
b1 ;
b1 G
b10 -
b10 B
b10 L
b1 (
b1 @
b1 J
b0 )
b0 A
b0 K
b1 8
b1 O
b1 V
b10 '
b10 ]
b10 b
b100000000000100010011 7
b100000000000100010011 M
b100000000000100010011 R
b100000000000100010011 S
b100000000000100010011 Y
b1 Q
b100 .
b100 X
1"
#60
0"
#65
b110 a
b11001 Z
b11001 !
b11001 *
b11001 I
b11001 W
b1 <
b1 F
b11000 ;
b11000 G
b101 >
b101 ?
b1100 -
b1100 B
b1100 L
b11000 (
b11000 @
b11000 J
11
b11 ,
b11 P
16
b11000 8
b11000 O
b11000 V
1:
b10 '
b10 ]
b10 b
b1100000000000011001101111 7
b1100000000000011001101111 M
b1100000000000011001101111 R
b1100000000000011001101111 S
b1100000000000011001101111 Y
b0 Q
b1 .
b1 X
1"
#70
0"
#75
b10000000000000000000000000000 ;
b10000000000000000000000000000 G
b110 a
b101 -
b101 B
b101 L
b0 (
b0 @
b0 J
b0 ,
b0 P
b10000000000000000000000000000 8
b10000000000000000000000000000 O
b10000000000000000000000000000 V
06
1:
b10 '
b10 ]
b10 b
b11001 Z
b10000000000000000001010010111 7
b10000000000000000001010010111 M
b10000000000000000001010010111 R
b10000000000000000001010010111 S
b10000000000000000001010010111 Y
b10000000000000000000000011001 !
b10000000000000000000000011001 *
b10000000000000000000000011001 I
b10000000000000000000000011001 W
b110 Q
b11001 <
b11001 F
b10000000000000000000000011001 >
b10000000000000000000000011001 ?
b11001 .
b11001 X
1"
#80
0"
#85
b100000000000000000000000011001 >
b100000000000000000000000011001 ?
b100000000000000000000000011001 !
b100000000000000000000000011001 *
b100000000000000000000000011001 I
b100000000000000000000000011001 W
b10000000000000000000000011001 <
b10000000000000000000000011001 F
b10000000000000000000000011001 .
b10000000000000000000000011001 X
1"
#90
0"
#95
b110000000000000000000000011001 >
b110000000000000000000000011001 ?
b110000000000000000000000011001 !
b110000000000000000000000011001 *
b110000000000000000000000011001 I
b110000000000000000000000011001 W
b100000000000000000000000011001 <
b100000000000000000000000011001 F
b100000000000000000000000011001 .
b100000000000000000000000011001 X
1"
#100
0"
#105
b1000000000000000000000000011001 >
b1000000000000000000000000011001 ?
b1000000000000000000000000011001 !
b1000000000000000000000000011001 *
b1000000000000000000000000011001 I
b1000000000000000000000000011001 W
b110000000000000000000000011001 <
b110000000000000000000000011001 F
b110000000000000000000000011001 .
b110000000000000000000000011001 X
1"
#110
0"
#115
b1010000000000000000000000011001 >
b1010000000000000000000000011001 ?
b1010000000000000000000000011001 !
b1010000000000000000000000011001 *
b1010000000000000000000000011001 I
b1010000000000000000000000011001 W
b1000000000000000000000000011001 <
b1000000000000000000000000011001 F
b1000000000000000000000000011001 .
b1000000000000000000000000011001 X
1"
#120
0"
#125
b1100000000000000000000000011001 >
b1100000000000000000000000011001 ?
b1100000000000000000000000011001 !
b1100000000000000000000000011001 *
b1100000000000000000000000011001 I
b1100000000000000000000000011001 W
b1010000000000000000000000011001 <
b1010000000000000000000000011001 F
b1010000000000000000000000011001 .
b1010000000000000000000000011001 X
1"
#130
0"
#135
b1110000000000000000000000011001 >
b1110000000000000000000000011001 ?
b1110000000000000000000000011001 !
b1110000000000000000000000011001 *
b1110000000000000000000000011001 I
b1110000000000000000000000011001 W
b1100000000000000000000000011001 <
b1100000000000000000000000011001 F
b1100000000000000000000000011001 .
b1100000000000000000000000011001 X
1"
#140
0"
#145
b10000000000000000000000000011001 >
b10000000000000000000000000011001 ?
b10000000000000000000000000011001 !
b10000000000000000000000000011001 *
b10000000000000000000000000011001 I
b10000000000000000000000000011001 W
b1110000000000000000000000011001 <
b1110000000000000000000000011001 F
b1110000000000000000000000011001 .
b1110000000000000000000000011001 X
1"
#150
0"
#155
b10010000000000000000000000011001 >
b10010000000000000000000000011001 ?
b10010000000000000000000000011001 !
b10010000000000000000000000011001 *
b10010000000000000000000000011001 I
b10010000000000000000000000011001 W
b10000000000000000000000000011001 <
b10000000000000000000000000011001 F
b10000000000000000000000000011001 .
b10000000000000000000000000011001 X
1"
#160
0"
#165
b10100000000000000000000000011001 >
b10100000000000000000000000011001 ?
b10100000000000000000000000011001 !
b10100000000000000000000000011001 *
b10100000000000000000000000011001 I
b10100000000000000000000000011001 W
b10010000000000000000000000011001 <
b10010000000000000000000000011001 F
b10010000000000000000000000011001 .
b10010000000000000000000000011001 X
1"
#170
0"
#175
b10110000000000000000000000011001 >
b10110000000000000000000000011001 ?
b10110000000000000000000000011001 !
b10110000000000000000000000011001 *
b10110000000000000000000000011001 I
b10110000000000000000000000011001 W
b10100000000000000000000000011001 <
b10100000000000000000000000011001 F
b10100000000000000000000000011001 .
b10100000000000000000000000011001 X
1"
#180
0"
#185
b11000000000000000000000000011001 >
b11000000000000000000000000011001 ?
b11000000000000000000000000011001 !
b11000000000000000000000000011001 *
b11000000000000000000000000011001 I
b11000000000000000000000000011001 W
b10110000000000000000000000011001 <
b10110000000000000000000000011001 F
b10110000000000000000000000011001 .
b10110000000000000000000000011001 X
1"
#190
0"
#195
b11010000000000000000000000011001 >
b11010000000000000000000000011001 ?
b11010000000000000000000000011001 !
b11010000000000000000000000011001 *
b11010000000000000000000000011001 I
b11010000000000000000000000011001 W
b11000000000000000000000000011001 <
b11000000000000000000000000011001 F
b11000000000000000000000000011001 .
b11000000000000000000000000011001 X
1"
#200
0"
#205
b11100000000000000000000000011001 >
b11100000000000000000000000011001 ?
b11100000000000000000000000011001 !
b11100000000000000000000000011001 *
b11100000000000000000000000011001 I
b11100000000000000000000000011001 W
b11010000000000000000000000011001 <
b11010000000000000000000000011001 F
b11010000000000000000000000011001 .
b11010000000000000000000000011001 X
1"
#210
0"
#215
b11110000000000000000000000011001 >
b11110000000000000000000000011001 ?
b11110000000000000000000000011001 !
b11110000000000000000000000011001 *
b11110000000000000000000000011001 I
b11110000000000000000000000011001 W
b11100000000000000000000000011001 <
b11100000000000000000000000011001 F
b11100000000000000000000000011001 .
b11100000000000000000000000011001 X
1"
#220
0"
#225
b11001 >
b11001 ?
b11001 !
b11001 *
b11001 I
b11001 W
b11110000000000000000000000011001 <
b11110000000000000000000000011001 F
b11110000000000000000000000011001 .
b11110000000000000000000000011001 X
1"
#230
0"
#235
b10000000000000000000000011001 >
b10000000000000000000000011001 ?
b10000000000000000000000011001 !
b10000000000000000000000011001 *
b10000000000000000000000011001 I
b10000000000000000000000011001 W
b11001 <
b11001 F
b11001 .
b11001 X
1"
#240
0"
#245
b100000000000000000000000011001 >
b100000000000000000000000011001 ?
b100000000000000000000000011001 !
b100000000000000000000000011001 *
b100000000000000000000000011001 I
b100000000000000000000000011001 W
b10000000000000000000000011001 <
b10000000000000000000000011001 F
b10000000000000000000000011001 .
b10000000000000000000000011001 X
1"
#250
0"
#255
b110000000000000000000000011001 >
b110000000000000000000000011001 ?
b110000000000000000000000011001 !
b110000000000000000000000011001 *
b110000000000000000000000011001 I
b110000000000000000000000011001 W
b100000000000000000000000011001 <
b100000000000000000000000011001 F
b100000000000000000000000011001 .
b100000000000000000000000011001 X
1"
#260
0"
#265
b1000000000000000000000000011001 >
b1000000000000000000000000011001 ?
b1000000000000000000000000011001 !
b1000000000000000000000000011001 *
b1000000000000000000000000011001 I
b1000000000000000000000000011001 W
b110000000000000000000000011001 <
b110000000000000000000000011001 F
b110000000000000000000000011001 .
b110000000000000000000000011001 X
1"
#270
0"
#275
b1010000000000000000000000011001 >
b1010000000000000000000000011001 ?
b1010000000000000000000000011001 !
b1010000000000000000000000011001 *
b1010000000000000000000000011001 I
b1010000000000000000000000011001 W
b1000000000000000000000000011001 <
b1000000000000000000000000011001 F
b1000000000000000000000000011001 .
b1000000000000000000000000011001 X
1"
#280
0"
#285
b1100000000000000000000000011001 >
b1100000000000000000000000011001 ?
b1100000000000000000000000011001 !
b1100000000000000000000000011001 *
b1100000000000000000000000011001 I
b1100000000000000000000000011001 W
b1010000000000000000000000011001 <
b1010000000000000000000000011001 F
b1010000000000000000000000011001 .
b1010000000000000000000000011001 X
1"
#290
0"
#295
b1110000000000000000000000011001 >
b1110000000000000000000000011001 ?
b1110000000000000000000000011001 !
b1110000000000000000000000011001 *
b1110000000000000000000000011001 I
b1110000000000000000000000011001 W
b1100000000000000000000000011001 <
b1100000000000000000000000011001 F
b1100000000000000000000000011001 .
b1100000000000000000000000011001 X
1"
#300
0"
#305
b10000000000000000000000000011001 >
b10000000000000000000000000011001 ?
b10000000000000000000000000011001 !
b10000000000000000000000000011001 *
b10000000000000000000000000011001 I
b10000000000000000000000000011001 W
b1110000000000000000000000011001 <
b1110000000000000000000000011001 F
b1110000000000000000000000011001 .
b1110000000000000000000000011001 X
1"
#310
0"
#315
b10010000000000000000000000011001 >
b10010000000000000000000000011001 ?
b10010000000000000000000000011001 !
b10010000000000000000000000011001 *
b10010000000000000000000000011001 I
b10010000000000000000000000011001 W
b10000000000000000000000000011001 <
b10000000000000000000000000011001 F
b10000000000000000000000000011001 .
b10000000000000000000000000011001 X
1"
#320
0"
#325
b10100000000000000000000000011001 >
b10100000000000000000000000011001 ?
b10100000000000000000000000011001 !
b10100000000000000000000000011001 *
b10100000000000000000000000011001 I
b10100000000000000000000000011001 W
b10010000000000000000000000011001 <
b10010000000000000000000000011001 F
b10010000000000000000000000011001 .
b10010000000000000000000000011001 X
1"
#330
0"
#335
b10110000000000000000000000011001 >
b10110000000000000000000000011001 ?
b10110000000000000000000000011001 !
b10110000000000000000000000011001 *
b10110000000000000000000000011001 I
b10110000000000000000000000011001 W
b10100000000000000000000000011001 <
b10100000000000000000000000011001 F
b10100000000000000000000000011001 .
b10100000000000000000000000011001 X
1"
#340
0"
#345
b11000000000000000000000000011001 >
b11000000000000000000000000011001 ?
b11000000000000000000000000011001 !
b11000000000000000000000000011001 *
b11000000000000000000000000011001 I
b11000000000000000000000000011001 W
b10110000000000000000000000011001 <
b10110000000000000000000000011001 F
b10110000000000000000000000011001 .
b10110000000000000000000000011001 X
1"
